…
@tbl-missing-cols shows the number and proportion of missing rows in
each column, arranged in order of least to most missingness.

    organs_original |> 
      # for each column, count the number of entries that are equal to NA
      summarise(across(everything(), ~sum(is.na(.)))) |>
      # convert the result to a "long-form" data frame
      pivot_longer(everything(), names_to = "variable", values_to = "missing_rows") |>
      # add a column corresponding to the *proportion* of missing values
      mutate(prop_missing = missing_rows / nrow(organs_original)) |>
      # arrange the rows in increasing order of missingness
      arrange(missing_rows)

    ## # A tibble: 24 × 3
    ##    variable        missing_rows prop_missing
    ##    <chr>                  <int>        <dbl>
    ##  1 REGION                     0        0    
    ##  2 COUNTRY                    0        0    
    ##  3 REPORTYEAR                 0        0    
    ##  4 POPULATION                 0        0    
    ##  5 TOTAL Kidney Tx         1764        0.557
    ##  6 LD Kidney Tx            1795        0.567
    ##  7 DD Kidney Tx            1857        0.587
    ##  8 TOTAL Actual DD         1875        0.592
    ##  9 TOTAL Liver TX          1912        0.604
    ## 10 DD Liver Tx             1948        0.615
    ## # ℹ 14 more rows
…
We will officially only change the column names when we actually clean
our data below, so the remaining explorations until then will still use
the original column names.

### Assessing variable type

The table below prints out the class/type of each column in the data.

    organs_original |>
      # for each column, compute the class
      map_chr(class) |>
      # convert the named character vector to a data frame
      enframe()

    ## # A tibble: 24 × 2
    ##    name              value    
    ##    <chr>             <chr>    
    ##  1 REGION            character
    ##  2 COUNTRY           character
    ##  3 REPORTYEAR        numeric  
    ##  4 POPULATION        numeric  
    ##  5 TOTAL Actual DD   numeric  
    ##  6 Actual DBD        numeric  
    ##  7 Actual DCD        numeric  
    ##  8 Total Utilized DD numeric  
    ##  9 Utilized DBD      numeric  
    ## 10 Utilized DCD      numeric  
    ## # ℹ 14 more rows
…
