…
    ## New names:
    ## • `` -> `...67`

``` r
debt_raw
```

    ## # A tibble: 197 × 217
    ##    `DEBT (% of GDP)`   `1800`  `1801`  `1802` `1803` `1804` `1805` `1806` `1807`
    ##    <chr>               <chr>   <chr>   <chr>  <chr>  <chr>  <chr>  <chr>  <chr> 
    ##  1 <NA>                <NA>    <NA>    <NA>   <NA>   <NA>   <NA>   <NA>   <NA>  
    ##  2 Afghanistan         no data no data no da… no da… no da… no da… no da… no da…
    ##  3 Albania             no data no data no da… no da… no da… no da… no da… no da…
    ##  4 Algeria             no data no data no da… no da… no da… no da… no da… no da…
    ##  5 Angola              no data no data no da… no da… no da… no da… no da… no da…
    ##  6 Anguilla            no data no data no da… no da… no da… no da… no da… no da…
    ##  7 Antigua and Barbuda no data no data no da… no da… no da… no da… no da… no da…
    ##  8 Argentina           no data no data no da… no da… no da… no da… no da… no da…
    ##  9 Armenia             no data no data no da… no da… no da… no da… no da… no da…
    ## 10 Australia           no data no data no da… no da… no da… no da… no da… no da…
    ## # ℹ 187 more rows
    ## # ℹ 208 more variables: `1808` <chr>, `1809` <chr>, `1810` <chr>, `1811` <chr>,
    ## #   `1812` <chr>, `1813` <chr>, `1814` <chr>, `1815` <chr>, `1816` <chr>,
    ## #   `1817` <chr>, `1818` <chr>, `1819` <chr>, `1820` <chr>, `1821` <chr>,
    ## #   `1822` <chr>, `1823` <chr>, `1824` <chr>, `1825` <chr>, `1826` <chr>,
    ## #   `1827` <chr>, `1828` <chr>, `1829` <chr>, `1830` <chr>, `1831` <chr>,
    ## #   `1832` <chr>, `1833` <chr>, `1834` <chr>, `1835` <chr>, `1836` <chr>, …

``` r
growth_raw
```

    ## # A tibble: 266 × 67
    ##    `Country Name` `Country Code` `Indicator Name` `Indicator Code` `1960` `1961`
    ##    <chr>          <chr>          <chr>            <chr>            <lgl>   <dbl>
    ##  1 Aruba          ABW            GDP growth (ann… NY.GDP.MKTP.KD.… NA     NA    
    ##  2 Africa Easter… AFE            GDP growth (ann… NY.GDP.MKTP.KD.… NA      0.240
    ##  3 Afghanistan    AFG            GDP growth (ann… NY.GDP.MKTP.KD.… NA     NA    
    ##  4 Africa Wester… AFW            GDP growth (ann… NY.GDP.MKTP.KD.… NA      1.85 
    ##  5 Angola         AGO            GDP growth (ann… NY.GDP.MKTP.KD.… NA     NA    
    ##  6 Albania        ALB            GDP growth (ann… NY.GDP.MKTP.KD.… NA     NA    
    ##  7 Andorra        AND            GDP growth (ann… NY.GDP.MKTP.KD.… NA     NA    
    ##  8 Arab World     ARB            GDP growth (ann… NY.GDP.MKTP.KD.… NA     NA    
    ##  9 United Arab E… ARE            GDP growth (ann… NY.GDP.MKTP.KD.… NA     NA    
    ## 10 Argentina      ARG            GDP growth (ann… NY.GDP.MKTP.KD.… NA      5.43 
    ## # ℹ 256 more rows
    ## # ℹ 61 more variables: `1962` <dbl>, `1963` <dbl>, `1964` <dbl>, `1965` <dbl>,
    ## #   `1966` <dbl>, `1967` <dbl>, `1968` <dbl>, `1969` <dbl>, `1970` <dbl>,
    ## #   `1971` <dbl>, `1972` <dbl>, `1973` <dbl>, `1974` <dbl>, `1975` <dbl>,
    ## #   `1976` <dbl>, `1977` <dbl>, `1978` <dbl>, `1979` <dbl>, `1980` <dbl>,
    ## #   `1981` <dbl>, `1982` <dbl>, `1983` <dbl>, `1984` <dbl>, `1985` <dbl>,
    ## #   `1986` <dbl>, `1987` <dbl>, `1988` <dbl>, `1989` <dbl>, `1990` <dbl>, …
…
